000 black    black     - #000000
001 red      maroon    - #800000
002 green    green     - #008000
003 yellow   olive     - #808000
004 blue     navy      - #000080
005 magenta  purple    - #800080
006 cyan     teal      - #008080
007 silver             - #c0c0c0
008 grey               - #808080
009 bred     red       - #ff0000
010 bgreen   lime      - #00ff00
011 byellow  yellow    - #ffff00
012 bblue    blue      - #0000ff
013 bmagenta fuchsia   - #ff00ff
014 bcyan    aqua      - #00ffff
015 white              - #ffffff
016 grey0              - #000000        = 015 silver
017 navyblue           - #00005f        = 016 grey0
018 darkblue           - #000087        = 017 navyblue
019 blue3              - #0000af        = 018 darkblue
020 blue3a             - #0000d7        = 020 blue3
021 blue1              - #0000ff        = 021 blue1
022 darkgreen          - #005f00        = 022 darkgreen
023 deepskyblue4       - #005f5f        = 025 deepskyblue4
024 deepskyblue4a      - #005f87        = 026 dodgerblue3
025 deepskyblue4b      - #005faf        = 027 dodgerblue2
026 dodgerblue3        - #005fd7        = 028 green4
027 dodgerblue2        - #005fff        = 029 springgreen4
028 green4             - #008700        = 030 turquoise4
029 springgreen4       - #00875f        = 032 deepskyblue3
030 turquoise4         - #008787        = 033 dodgerblue1
031 deepskyblue3       - #0087af        = 036 darkcyan
032 deepskyblue3a      - #0087d7        = 037 lightseagreen
033 dodgerblue1        - #0087ff        = 038 deepskyblue2
034 green3             - #00af00        = 039 deepskyblue1
035 springgreen3       - #00af5f        = 040 green3
036 darkcyan           - #00af87        = 041 springgreen3
037 lightseagreen      - #00afaf        = 043 cyan3
038 deepskyblue2       - #00afd7        = 044 darkturquoise
039 deepskyblue1       - #00afff        = 045 turquoise2
040 green3a            - #00d700        = 046 green1
041 springgreen3a      - #00d75f        = 047 springgreen2
042 springgreen2       - #00d787        = 048 springgreen1
043 cyan3              - #00d7af        = 049 mediumspringgreen
044 darkturquoise      - #00d7d7        = 050 cyan2
045 turquoise2         - #00d7ff        = 051 cyan1
046 green1             - #00ff00        = 055 purple4
047 springgreen2a      - #00ff5f        = 056 purple3
048 springgreen1       - #00ff87        = 057 blueviolet
049 mediumspringgreen  - #00ffaf        = 059 grey37
050 cyan2              - #00ffd7        = 060 mediumpurple4
051 cyan1              - #00ffff        = 062 slateblue3
052 darkred            - #5f0000        = 063 royalblue1
053 deeppink4          - #5f005f        = 064 chartreuse4
054 purple4            - #5f0087        = 066 paleturquoise4
055 purple4a           - #5f00af        = 067 steelblue
056 purple3            - #5f00d7        = 068 steelblue3
057 blueviolet         - #5f00ff        = 069 cornflowerblue
058 orange4            - #5f5f00        = 071 darkseagreen4
059 grey37             - #5f5f5f        = 073 cadetblue
060 mediumpurple4      - #5f5f87        = 074 skyblue3
061 slateblue3         - #5f5faf        = 076 chartreuse3
062 slateblue3a        - #5f5fd7        = 078 seagreen3
063 royalblue1         - #5f5fff        = 079 aquamarine3
064 chartreuse4        - #5f8700        = 080 mediumturquoise
065 darkseagreen4      - #5f875f        = 081 steelblue1
066 paleturquoise4     - #5f8787        = 083 seagreen2
067 steelblue          - #5f87af        = 085 seagreen1
068 steelblue3         - #5f87d7        = 087 darkslategray2
069 cornflowerblue     - #5f87ff        = 088 darkred
070 chartreuse3        - #5faf00        = 091 darkmagenta
071 darkseagreen4a     - #5faf5f        = 094 orange4
072 cadetblue          - #5faf87        = 095 lightpink4
073 cadetbluea         - #5fafaf        = 096 plum4
074 skyblue3           - #5fafd7        = 098 mediumpurple3
075 steelblue1         - #5fafff        = 099 slateblue1
076 chartreuse3a       - #5fd700        = 101 wheat4
077 palegreen3         - #5fd75f        = 102 grey53
078 seagreen3          - #5fd787        = 103 lightslategrey
079 aquamarine3        - #5fd7af        = 104 mediumpurple
080 mediumturquoise    - #5fd7d7        = 105 lightslateblue
081 steelblue1a        - #5fd7ff        = 106 yellow4
082 chartreuse2a       - #5fff00        = 108 darkseagreen
083 seagreen2          - #5fff5f        = 110 lightskyblue3
084 seagreen1          - #5fff87        = 111 skyblue2
085 seagreen1a         - #5fffaf        = 112 chartreuse2
086 aquamarine1        - #5fffd7        = 114 palegreen3
087 darkslategray2     - #5fffff        = 116 darkslategray3
088 darkreda           - #870000        = 117 skyblue1
089 deeppink4a         - #87005f        = 118 chartreuse1
090 darkmagenta        - #870087        = 120 lightgreen
091 darkmagentaa       - #8700af        = 122 aquamarine1
092 darkviolet         - #8700d7        = 123 darkslategray1
093 purple             - #8700ff        = 125 deeppink4
094 orange4a           - #875f00        = 126 mediumvioletred
095 lightpink4         - #875f5f        = 128 darkviolet
096 plum4              - #875f87        = 129 purple
097 mediumpurple3      - #875faf        = 133 mediumorchid3
098 mediumpurple3a     - #875fd7        = 134 mediumorchid
099 slateblue1         - #875fff        = 136 darkgoldenrod
100 yellow4            - #878700        = 138 rosybrown
101 wheat4             - #87875f        = 139 grey63
102 grey53             - #878787        = 140 mediumpurple2
103 lightslategrey     - #8787af        = 141 mediumpurple1
104 mediumpurple       - #8787d7        = 143 darkkhaki
105 lightslateblue     - #8787ff        = 144 navajowhite3
106 yellow4a           - #87af00        = 145 grey69
107 darkolivegreen3    - #87af5f        = 146 lightsteelblue3
108 darkseagreen       - #87af87        = 147 lightsteelblue
109 lightskyblue3      - #87afaf        = 149 darkolivegreen3
110 lightskyblue3a     - #87afd7        = 150 darkseagreen3
111 skyblue2           - #87afff        = 152 lightcyan3
112 chartreuse2        - #87d700        = 153 lightskyblue1
113 darkolivegreen3a   - #87d75f        = 154 greenyellow
114 palegreen3a        - #87d787        = 155 darkolivegreen2
115 darkseagreen3      - #87d7af        = 156 palegreen1
116 darkslategray3     - #87d7d7        = 157 darkseagreen2
117 skyblue1           - #87d7ff        = 159 paleturquoise1
118 chartreuse1        - #87ff00        = 160 red3
119 lightgreena        - #87ff5f        = 162 deeppink3
120 lightgreenb        - #87ff87        = 164 magenta3
121 palegreen1         - #87ffaf        = 166 darkorange3
122 aquamarine1a       - #87ffd7        = 167 indianred
123 darkslategray1     - #87ffff        = 168 hotpink3
124 red3               - #af0000        = 169 hotpink2
125 deeppink4b         - #af005f        = 170 orchid
126 mediumvioletred    - #af0087        = 172 orange3
127 magenta3           - #af00af        = 173 lightsalmon3
128 darkvioleta        - #af00d7        = 174 lightpink3
129 purplea            - #af00ff        = 175 pink3
130 darkorange3        - #af5f00        = 176 plum3
131 indianred          - #af5f5f        = 177 violet
132 hotpink3           - #af5f87        = 178 gold3
133 mediumorchid3      - #af5faf        = 179 lightgoldenrod3
134 mediumorchid       - #af5fd7        = 180 tan
135 mediumpurple2      - #af5fff        = 181 mistyrose3
136 darkgoldenrod      - #af8700        = 182 thistle3
137 lightsalmon3       - #af875f        = 183 plum2
138 rosybrown          - #af8787        = 184 yellow3
139 grey63             - #af87af        = 185 khaki3
140 mediumpurple2a     - #af87d7        = 187 lightyellow3
141 mediumpurple1      - #af87ff        = 188 grey84
142 gold3              - #afaf00        = 189 lightsteelblue1
143 darkkhaki          - #afaf5f        = 190 yellow2
144 navajowhite3       - #afaf87        = 192 darkolivegreen1
145 grey69             - #afafaf        = 193 darkseagreen1
146 lightsteelblue3    - #afafd7        = 194 honeydew2
147 lightsteelblue     - #afafff        = 195 lightcyan1
148 yellow3            - #afd700        = 196 red1
149 darkolivegreen3b   - #afd75f        = 197 deeppink2
150 darkseagreen3a     - #afd787        = 199 deeppink1
151 darkseagreen2      - #afd7af        = 200 magenta2
152 lightcyan3         - #afd7d7        = 201 magenta1
153 lightskyblue1      - #afd7ff        = 202 orangered1
154 greenyellow        - #afff00        = 204 indianred1
155 darkolivegreen2    - #afff5f        = 206 hotpink
156 palegreen1a        - #afff87        = 207 mediumorchid1
157 darkseagreen2a     - #afffaf        = 208 darkorange
158 darkseagreen1      - #afffd7        = 209 salmon1
159 paleturquoise1     - #afffff        = 210 lightcoral
160 red3a              - #d70000        = 211 palevioletred1
161 deeppink3          - #d7005f        = 212 orchid2
162 deeppink3a         - #d70087        = 213 orchid1
163 magenta3a          - #d700af        = 214 orange1
164 magenta3b          - #d700d7        = 215 sandybrown
165 magenta2           - #d700ff        = 216 lightsalmon1
166 darkorange3a       - #d75f00        = 217 lightpink1
167 indianreda         - #d75f5f        = 218 pink1
168 hotpink3a          - #d75f87        = 219 plum1
169 hotpink2           - #d75faf        = 220 gold1
170 orchid             - #d75fd7        = 222 lightgoldenrod2
171 mediumorchid1      - #d75fff        = 223 navajowhite1
172 orange3            - #d78700        = 224 mistyrose1
173 lightsalmon3a      - #d7875f        = 225 thistle1
174 lightpink3         - #d78787        = 226 yellow1
175 pink3              - #d787af        = 227 lightgoldenrod1
176 plum3              - #d787d7        = 228 khaki1
177 violet             - #d787ff        = 229 wheat1
178 gold3a             - #d7af00        = 230 cornsilk1
179 lightgoldenrod3    - #d7af5f        = 231 grey100
180 tan                - #d7af87        = 232 grey3
181 mistyrose3         - #d7afaf        = 233 grey7
182 thistle3           - #d7afd7        = 234 grey11
183 plum2              - #d7afff        = 235 grey15
184 yellow3a           - #d7d700        = 236 grey19
185 khaki3             - #d7d75f        = 237 grey23
186 lightgoldenrod2    - #d7d787        = 238 grey27
187 lightyellow3       - #d7d7af        = 239 grey30
188 grey84             - #d7d7d7        = 240 grey35
189 lightsteelblue1    - #d7d7ff        = 241 grey39
190 yellow2            - #d7ff00        = 242 grey42
191 darkolivegreen1    - #d7ff5f        = 243 grey46
192 darkolivegreen1a   - #d7ff87        = 244 grey50
193 darkseagreen1a     - #d7ffaf        = 245 grey54
194 honeydew2          - #d7ffd7        = 246 grey58
195 lightcyan1         - #d7ffff        = 247 grey62
196 red1               - #ff0000        = 248 grey66
197 deeppink2          - #ff005f        = 249 grey70
198 deeppink1          - #ff0087        = 250 grey74
199 deeppink1a         - #ff00af        = 251 grey78
200 magenta2a          - #ff00d7        = 252 grey82
201 magenta1           - #ff00ff        = 253 grey85
202 orangered1         - #ff5f00        = 254 grey89
203 indianred1         - #ff5f5f        = 255 grey93
204 indianred1a        - #ff5f87        =
205 hotpink            - #ff5faf        =
206 hotpinka           - #ff5fd7        =
207 mediumorchid1a     - #ff5fff        =
208 darkorange         - #ff8700        =
209 salmon1            - #ff875f        =
210 lightcoral         - #ff8787        =
211 palevioletred1     - #ff87af        =
212 orchid2            - #ff87d7        =
213 orchid1            - #ff87ff        =
214 orange1            - #ffaf00        =
215 sandybrown         - #ffaf5f        =
216 lightsalmon1       - #ffaf87        =
217 lightpink1         - #ffafaf        =
218 pink1              - #ffafd7        =
219 plum1              - #ffafff        =
220 gold1              - #ffd700        =
221 lightgoldenrod2a   - #ffd75f        =
222 lightgoldenrod2b   - #ffd787        =
223 navajowhite1       - #ffd7af        =
224 mistyrose1         - #ffd7d7        =
225 thistle1           - #ffd7ff        =
226 yellow1            - #ffff00        =
227 lightgoldenrod1    - #ffff5f        =
228 khaki1             - #ffff87        =
229 wheat1             - #ffffaf        =
230 cornsilk1          - #ffffd7        =
231 grey100            - #ffffff        =
232 grey3              - #080808        =
233 grey7              - #121212        =
234 grey11             - #1c1c1c        =
235 grey15             - #262626        =
236 grey19             - #303030        =
237 grey23             - #3a3a3a        =
238 grey27             - #444444        =
239 grey30             - #4e4e4e        =
240 grey35             - #585858        =
241 grey39             - #626262        =
242 grey42             - #6c6c6c        =
243 grey46             - #767676        =
244 grey50             - #808080        =
245 grey54             - #8a8a8a        =
246 grey58             - #949494        =
247 grey62             - #9e9e9e        =
248 grey66             - #a8a8a8        =
249 grey70             - #b2b2b2        =
250 grey74             - #bcbcbc        =
251 grey78             - #c6c6c6        =
252 grey82             - #d0d0d0        =
253 grey85             - #dadada        =
254 grey89             - #e4e4e4        =
255 grey93             - #eeeeee        =

https://jonasjacek.github.io/colors/
