{
    "backup": false,
    "backupdir": "~/.local/state/micro/backups",
    "colorcolumn": 80,
    "colorscheme": "monokai",
    "diffgutter": true,
    "eofnewline": true,
    "filemanager-openonstart": true,
    "ft:go": {
        "tabstospaces": false
    },
    "ft:ruby": {
        "tabsize": 3
    },
    "hlsearch": true,
    "hltaberrors": true,
    "indentchar": "»",
    "initlua": true,
    "keepautoindent": true,
    "keymenu": true,
    "matchbracestyle": "highlight",
	"mkparents": true,
    "parsecursor": true,
    "pluginchannels": [
        "https://raw.githubusercontent.com/micro-editor/plugin-channel/master/channel.json"
    ],
    "pluginrepos": [
        "https://github.com/micro-editor/go-plugin",
        "https://github.com/adamnpeace/micro-wc-plugin",
        "https://github.com/NicolaiSoeborg/manipulator-plugin",
        "https://github.com/terokarvinen/palettero",
        "https://github.com/sparques/micro-quoter",
        "https://github.com/10sr/editorconfig-micro",
        "https://github.com/micro-editor/updated-plugins/tree/master/filemanager-plugin"
    ],
    "rmtrailingws": true,
    "savehistory": false,
    "scrollbar": true,
    "scrollmargin": 5,
    "scrollspeed": 1,
    "statusformatl": "$(filename)$(modified) $(status.paste)| Ln:$(line) Col:$(col) | $(lines) lines | $(opt:encoding) | $(opt:fileformat) | $(opt:filetype) ",
    "statusformatr": "$(bind:ToggleKeyMenu): bindings",
    "wordwrap": true
}
